([('main.exe',
   'C:\\Users\\Eunbiline_98\\Documents\\project '
   'LKI\\dynalite-project\\Research RGB Led Strip Arduino\\Program\\audio '
   'reactive led strip\\python\\build\\main\\main.exe',
   'EXECUTABLE'),
  ('main.exe.manifest',
   'C:\\Users\\Eunbiline_98\\Documents\\project '
   'LKI\\dynalite-project\\Research RGB Led Strip Arduino\\Program\\audio '
   'reactive led strip\\python\\build\\main\\main.exe.manifest',
   'BINARY'),
  ('api-ms-win-crt-math-l1-1-0.dll',
   'c:\\users\\eunbiline_98\\anaconda3\\envs\\rgb\\api-ms-win-crt-math-l1-1-0.dll',
   'BINARY'),
  ('api-ms-win-crt-locale-l1-1-0.dll',
   'c:\\users\\eunbiline_98\\anaconda3\\envs\\rgb\\api-ms-win-crt-locale-l1-1-0.dll',
   'BINARY'),
  ('api-ms-win-crt-stdio-l1-1-0.dll',
   'c:\\users\\eunbiline_98\\anaconda3\\envs\\rgb\\api-ms-win-crt-stdio-l1-1-0.dll',
   'BINARY'),
  ('api-ms-win-crt-heap-l1-1-0.dll',
   'c:\\users\\eunbiline_98\\anaconda3\\envs\\rgb\\api-ms-win-crt-heap-l1-1-0.dll',
   'BINARY'),
  ('VCRUNTIME140.dll',
   'c:\\users\\eunbiline_98\\anaconda3\\envs\\rgb\\VCRUNTIME140.dll',
   'BINARY'),
  ('api-ms-win-crt-runtime-l1-1-0.dll',
   'c:\\users\\eunbiline_98\\anaconda3\\envs\\rgb\\api-ms-win-crt-runtime-l1-1-0.dll',
   'BINARY'),
  ('python38.dll',
   'c:\\users\\eunbiline_98\\anaconda3\\envs\\rgb\\python38.dll',
   'BINARY'),
  ('ucrtbase.dll',
   'c:\\users\\eunbiline_98\\anaconda3\\envs\\rgb\\ucrtbase.dll',
   'BINARY'),
  ('api-ms-win-crt-convert-l1-1-0.dll',
   'c:\\users\\eunbiline_98\\anaconda3\\envs\\rgb\\api-ms-win-crt-convert-l1-1-0.dll',
   'BINARY'),
  ('api-ms-win-crt-string-l1-1-0.dll',
   'c:\\users\\eunbiline_98\\anaconda3\\envs\\rgb\\api-ms-win-crt-string-l1-1-0.dll',
   'BINARY'),
  ('api-ms-win-crt-filesystem-l1-1-0.dll',
   'c:\\users\\eunbiline_98\\anaconda3\\envs\\rgb\\api-ms-win-crt-filesystem-l1-1-0.dll',
   'BINARY'),
  ('api-ms-win-crt-environment-l1-1-0.dll',
   'c:\\users\\eunbiline_98\\anaconda3\\envs\\rgb\\api-ms-win-crt-environment-l1-1-0.dll',
   'BINARY'),
  ('api-ms-win-crt-conio-l1-1-0.dll',
   'c:\\users\\eunbiline_98\\anaconda3\\envs\\rgb\\api-ms-win-crt-conio-l1-1-0.dll',
   'BINARY'),
  ('api-ms-win-crt-time-l1-1-0.dll',
   'c:\\users\\eunbiline_98\\anaconda3\\envs\\rgb\\api-ms-win-crt-time-l1-1-0.dll',
   'BINARY'),
  ('api-ms-win-crt-process-l1-1-0.dll',
   'c:\\users\\eunbiline_98\\anaconda3\\envs\\rgb\\api-ms-win-crt-process-l1-1-0.dll',
   'BINARY'),
  ('api-ms-win-core-profile-l1-1-0.dll',
   'c:\\users\\eunbiline_98\\anaconda3\\envs\\rgb\\api-ms-win-core-profile-l1-1-0.dll',
   'BINARY'),
  ('api-ms-win-core-file-l1-2-0.dll',
   'c:\\users\\eunbiline_98\\anaconda3\\envs\\rgb\\api-ms-win-core-file-l1-2-0.dll',
   'BINARY'),
  ('api-ms-win-core-interlocked-l1-1-0.dll',
   'c:\\users\\eunbiline_98\\anaconda3\\envs\\rgb\\api-ms-win-core-interlocked-l1-1-0.dll',
   'BINARY'),
  ('api-ms-win-core-string-l1-1-0.dll',
   'c:\\users\\eunbiline_98\\anaconda3\\envs\\rgb\\api-ms-win-core-string-l1-1-0.dll',
   'BINARY'),
  ('api-ms-win-core-processenvironment-l1-1-0.dll',
   'c:\\users\\eunbiline_98\\anaconda3\\envs\\rgb\\api-ms-win-core-processenvironment-l1-1-0.dll',
   'BINARY'),
  ('api-ms-win-core-console-l1-1-0.dll',
   'c:\\users\\eunbiline_98\\anaconda3\\envs\\rgb\\api-ms-win-core-console-l1-1-0.dll',
   'BINARY'),
  ('api-ms-win-core-sysinfo-l1-1-0.dll',
   'c:\\users\\eunbiline_98\\anaconda3\\envs\\rgb\\api-ms-win-core-sysinfo-l1-1-0.dll',
   'BINARY'),
  ('api-ms-win-core-localization-l1-2-0.dll',
   'c:\\users\\eunbiline_98\\anaconda3\\envs\\rgb\\api-ms-win-core-localization-l1-2-0.dll',
   'BINARY'),
  ('api-ms-win-core-debug-l1-1-0.dll',
   'c:\\users\\eunbiline_98\\anaconda3\\envs\\rgb\\api-ms-win-core-debug-l1-1-0.dll',
   'BINARY'),
  ('api-ms-win-core-synch-l1-2-0.dll',
   'c:\\users\\eunbiline_98\\anaconda3\\envs\\rgb\\api-ms-win-core-synch-l1-2-0.dll',
   'BINARY'),
  ('api-ms-win-core-timezone-l1-1-0.dll',
   'c:\\users\\eunbiline_98\\anaconda3\\envs\\rgb\\api-ms-win-core-timezone-l1-1-0.dll',
   'BINARY'),
  ('api-ms-win-core-synch-l1-1-0.dll',
   'c:\\users\\eunbiline_98\\anaconda3\\envs\\rgb\\api-ms-win-core-synch-l1-1-0.dll',
   'BINARY'),
  ('api-ms-win-core-errorhandling-l1-1-0.dll',
   'c:\\users\\eunbiline_98\\anaconda3\\envs\\rgb\\api-ms-win-core-errorhandling-l1-1-0.dll',
   'BINARY'),
  ('api-ms-win-core-heap-l1-1-0.dll',
   'c:\\users\\eunbiline_98\\anaconda3\\envs\\rgb\\api-ms-win-core-heap-l1-1-0.dll',
   'BINARY'),
  ('api-ms-win-core-handle-l1-1-0.dll',
   'c:\\users\\eunbiline_98\\anaconda3\\envs\\rgb\\api-ms-win-core-handle-l1-1-0.dll',
   'BINARY'),
  ('api-ms-win-core-libraryloader-l1-1-0.dll',
   'c:\\users\\eunbiline_98\\anaconda3\\envs\\rgb\\api-ms-win-core-libraryloader-l1-1-0.dll',
   'BINARY'),
  ('api-ms-win-core-datetime-l1-1-0.dll',
   'c:\\users\\eunbiline_98\\anaconda3\\envs\\rgb\\api-ms-win-core-datetime-l1-1-0.dll',
   'BINARY'),
  ('api-ms-win-core-file-l1-1-0.dll',
   'c:\\users\\eunbiline_98\\anaconda3\\envs\\rgb\\api-ms-win-core-file-l1-1-0.dll',
   'BINARY'),
  ('api-ms-win-core-processthreads-l1-1-0.dll',
   'c:\\users\\eunbiline_98\\anaconda3\\envs\\rgb\\api-ms-win-core-processthreads-l1-1-0.dll',
   'BINARY'),
  ('api-ms-win-core-processthreads-l1-1-1.dll',
   'c:\\users\\eunbiline_98\\anaconda3\\envs\\rgb\\api-ms-win-core-processthreads-l1-1-1.dll',
   'BINARY'),
  ('api-ms-win-core-util-l1-1-0.dll',
   'c:\\users\\eunbiline_98\\anaconda3\\envs\\rgb\\api-ms-win-core-util-l1-1-0.dll',
   'BINARY'),
  ('api-ms-win-core-memory-l1-1-0.dll',
   'c:\\users\\eunbiline_98\\anaconda3\\envs\\rgb\\api-ms-win-core-memory-l1-1-0.dll',
   'BINARY'),
  ('api-ms-win-core-file-l2-1-0.dll',
   'c:\\users\\eunbiline_98\\anaconda3\\envs\\rgb\\api-ms-win-core-file-l2-1-0.dll',
   'BINARY'),
  ('api-ms-win-core-namedpipe-l1-1-0.dll',
   'c:\\users\\eunbiline_98\\anaconda3\\envs\\rgb\\api-ms-win-core-namedpipe-l1-1-0.dll',
   'BINARY'),
  ('api-ms-win-core-rtlsupport-l1-1-0.dll',
   'c:\\users\\eunbiline_98\\anaconda3\\envs\\rgb\\api-ms-win-core-rtlsupport-l1-1-0.dll',
   'BINARY'),
  ('PyQt5\\Qt\\plugins\\imageformats\\qsvg.dll',
   'C:\\Users\\Eunbiline_98\\anaconda3\\envs\\RGB\\Library\\plugins\\imageformats\\qsvg.dll',
   'BINARY'),
  ('PyQt5\\Qt\\plugins\\imageformats\\qwebp.dll',
   'C:\\Users\\Eunbiline_98\\anaconda3\\envs\\RGB\\Library\\plugins\\imageformats\\qwebp.dll',
   'BINARY'),
  ('PyQt5\\Qt\\plugins\\platforms\\qwindows.dll',
   'C:\\Users\\Eunbiline_98\\anaconda3\\envs\\RGB\\Library\\plugins\\platforms\\qwindows.dll',
   'BINARY'),
  ('icudt58.dll',
   'C:\\Users\\Eunbiline_98\\anaconda3\\envs\\RGB\\Library\\bin\\icudt58.dll',
   'BINARY'),
  ('PyQt5\\Qt\\plugins\\imageformats\\qwbmp.dll',
   'C:\\Users\\Eunbiline_98\\anaconda3\\envs\\RGB\\Library\\plugins\\imageformats\\qwbmp.dll',
   'BINARY'),
  ('PyQt5\\Qt\\plugins\\imageformats\\qgif.dll',
   'C:\\Users\\Eunbiline_98\\anaconda3\\envs\\RGB\\Library\\plugins\\imageformats\\qgif.dll',
   'BINARY'),
  ('PyQt5\\Qt\\plugins\\imageformats\\qico.dll',
   'C:\\Users\\Eunbiline_98\\anaconda3\\envs\\RGB\\Library\\plugins\\imageformats\\qico.dll',
   'BINARY'),
  ('PyQt5\\Qt\\plugins\\platforminputcontexts\\qtvirtualkeyboardplugin.dll',
   'C:\\Users\\Eunbiline_98\\anaconda3\\envs\\RGB\\Library\\plugins\\platforminputcontexts\\qtvirtualkeyboardplugin.dll',
   'BINARY'),
  ('PyQt5\\Qt\\plugins\\iconengines\\qsvgicon.dll',
   'C:\\Users\\Eunbiline_98\\anaconda3\\envs\\RGB\\Library\\plugins\\iconengines\\qsvgicon.dll',
   'BINARY'),
  ('PyQt5\\Qt\\plugins\\imageformats\\qtga.dll',
   'C:\\Users\\Eunbiline_98\\anaconda3\\envs\\RGB\\Library\\plugins\\imageformats\\qtga.dll',
   'BINARY'),
  ('PyQt5\\Qt\\plugins\\imageformats\\qicns.dll',
   'C:\\Users\\Eunbiline_98\\anaconda3\\envs\\RGB\\Library\\plugins\\imageformats\\qicns.dll',
   'BINARY'),
  ('PyQt5\\Qt\\plugins\\platforms\\qoffscreen.dll',
   'C:\\Users\\Eunbiline_98\\anaconda3\\envs\\RGB\\Library\\plugins\\platforms\\qoffscreen.dll',
   'BINARY'),
  ('opengl32sw.dll',
   'C:\\Users\\Eunbiline_98\\anaconda3\\envs\\RGB\\Library\\bin\\opengl32sw.dll',
   'BINARY'),
  ('PyQt5\\Qt\\plugins\\imageformats\\qjpeg.dll',
   'C:\\Users\\Eunbiline_98\\anaconda3\\envs\\RGB\\Library\\plugins\\imageformats\\qjpeg.dll',
   'BINARY'),
  ('PyQt5\\Qt\\plugins\\platforms\\qminimal.dll',
   'C:\\Users\\Eunbiline_98\\anaconda3\\envs\\RGB\\Library\\plugins\\platforms\\qminimal.dll',
   'BINARY'),
  ('icuuc58.dll',
   'C:\\Users\\Eunbiline_98\\anaconda3\\envs\\RGB\\Library\\bin\\icuuc58.dll',
   'BINARY'),
  ('icuin58.dll',
   'C:\\Users\\Eunbiline_98\\anaconda3\\envs\\RGB\\Library\\bin\\icuin58.dll',
   'BINARY'),
  ('PyQt5\\Qt\\plugins\\imageformats\\qtiff.dll',
   'C:\\Users\\Eunbiline_98\\anaconda3\\envs\\RGB\\Library\\plugins\\imageformats\\qtiff.dll',
   'BINARY'),
  ('select',
   'c:\\users\\eunbiline_98\\anaconda3\\envs\\rgb\\DLLs\\select.pyd',
   'EXTENSION'),
  ('_overlapped',
   'c:\\users\\eunbiline_98\\anaconda3\\envs\\rgb\\DLLs\\_overlapped.pyd',
   'EXTENSION'),
  ('_ssl',
   'c:\\users\\eunbiline_98\\anaconda3\\envs\\rgb\\DLLs\\_ssl.pyd',
   'EXTENSION'),
  ('_asyncio',
   'c:\\users\\eunbiline_98\\anaconda3\\envs\\rgb\\DLLs\\_asyncio.pyd',
   'EXTENSION'),
  ('_queue',
   'c:\\users\\eunbiline_98\\anaconda3\\envs\\rgb\\DLLs\\_queue.pyd',
   'EXTENSION'),
  ('unicodedata',
   'c:\\users\\eunbiline_98\\anaconda3\\envs\\rgb\\DLLs\\unicodedata.pyd',
   'EXTENSION'),
  ('_multiprocessing',
   'c:\\users\\eunbiline_98\\anaconda3\\envs\\rgb\\DLLs\\_multiprocessing.pyd',
   'EXTENSION'),
  ('pyexpat',
   'c:\\users\\eunbiline_98\\anaconda3\\envs\\rgb\\DLLs\\pyexpat.pyd',
   'EXTENSION'),
  ('_decimal',
   'c:\\users\\eunbiline_98\\anaconda3\\envs\\rgb\\DLLs\\_decimal.pyd',
   'EXTENSION'),
  ('_hashlib',
   'c:\\users\\eunbiline_98\\anaconda3\\envs\\rgb\\DLLs\\_hashlib.pyd',
   'EXTENSION'),
  ('_ctypes',
   'c:\\users\\eunbiline_98\\anaconda3\\envs\\rgb\\DLLs\\_ctypes.pyd',
   'EXTENSION'),
  ('_socket',
   'c:\\users\\eunbiline_98\\anaconda3\\envs\\rgb\\DLLs\\_socket.pyd',
   'EXTENSION'),
  ('_lzma',
   'c:\\users\\eunbiline_98\\anaconda3\\envs\\rgb\\DLLs\\_lzma.pyd',
   'EXTENSION'),
  ('_bz2',
   'c:\\users\\eunbiline_98\\anaconda3\\envs\\rgb\\DLLs\\_bz2.pyd',
   'EXTENSION'),
  ('sip',
   'c:\\users\\eunbiline_98\\anaconda3\\envs\\rgb\\lib\\site-packages\\sip.pyd',
   'EXTENSION'),
  ('PyQt5.QtWidgets',
   'c:\\users\\eunbiline_98\\anaconda3\\envs\\rgb\\lib\\site-packages\\PyQt5\\QtWidgets.pyd',
   'EXTENSION'),
  ('PyQt5.QtGui',
   'c:\\users\\eunbiline_98\\anaconda3\\envs\\rgb\\lib\\site-packages\\PyQt5\\QtGui.pyd',
   'EXTENSION'),
  ('PyQt5.QtCore',
   'c:\\users\\eunbiline_98\\anaconda3\\envs\\rgb\\lib\\site-packages\\PyQt5\\QtCore.pyd',
   'EXTENSION'),
  ('PyQt5.QtTest',
   'c:\\users\\eunbiline_98\\anaconda3\\envs\\rgb\\lib\\site-packages\\PyQt5\\QtTest.pyd',
   'EXTENSION'),
  ('PyQt5.QtOpenGL',
   'c:\\users\\eunbiline_98\\anaconda3\\envs\\rgb\\lib\\site-packages\\PyQt5\\QtOpenGL.pyd',
   'EXTENSION'),
  ('PyQt5.QtSvg',
   'c:\\users\\eunbiline_98\\anaconda3\\envs\\rgb\\lib\\site-packages\\PyQt5\\QtSvg.pyd',
   'EXTENSION'),
  ('_elementtree',
   'c:\\users\\eunbiline_98\\anaconda3\\envs\\rgb\\DLLs\\_elementtree.pyd',
   'EXTENSION'),
  ('scipy._lib._ccallback_c',
   'c:\\users\\eunbiline_98\\anaconda3\\envs\\rgb\\lib\\site-packages\\scipy\\_lib\\_ccallback_c.cp38-win_amd64.pyd',
   'EXTENSION'),
  ('scipy.signal._peak_finding_utils',
   'c:\\users\\eunbiline_98\\anaconda3\\envs\\rgb\\lib\\site-packages\\scipy\\signal\\_peak_finding_utils.cp38-win_amd64.pyd',
   'EXTENSION'),
  ('scipy.linalg._flapack',
   'c:\\users\\eunbiline_98\\anaconda3\\envs\\rgb\\lib\\site-packages\\scipy\\linalg\\_flapack.cp38-win_amd64.pyd',
   'EXTENSION'),
  ('numpy.core._multiarray_tests',
   'c:\\users\\eunbiline_98\\anaconda3\\envs\\rgb\\lib\\site-packages\\numpy\\core\\_multiarray_tests.cp38-win_amd64.pyd',
   'EXTENSION'),
  ('numpy.core._multiarray_umath',
   'c:\\users\\eunbiline_98\\anaconda3\\envs\\rgb\\lib\\site-packages\\numpy\\core\\_multiarray_umath.cp38-win_amd64.pyd',
   'EXTENSION'),
  ('numpy.linalg._umath_linalg',
   'c:\\users\\eunbiline_98\\anaconda3\\envs\\rgb\\lib\\site-packages\\numpy\\linalg\\_umath_linalg.cp38-win_amd64.pyd',
   'EXTENSION'),
  ('numpy.linalg.lapack_lite',
   'c:\\users\\eunbiline_98\\anaconda3\\envs\\rgb\\lib\\site-packages\\numpy\\linalg\\lapack_lite.cp38-win_amd64.pyd',
   'EXTENSION'),
  ('scipy.linalg._fblas',
   'c:\\users\\eunbiline_98\\anaconda3\\envs\\rgb\\lib\\site-packages\\scipy\\linalg\\_fblas.cp38-win_amd64.pyd',
   'EXTENSION'),
  ('scipy.sparse.csgraph._tools',
   'c:\\users\\eunbiline_98\\anaconda3\\envs\\rgb\\lib\\site-packages\\scipy\\sparse\\csgraph\\_tools.cp38-win_amd64.pyd',
   'EXTENSION'),
  ('scipy.sparse.csgraph._reordering',
   'c:\\users\\eunbiline_98\\anaconda3\\envs\\rgb\\lib\\site-packages\\scipy\\sparse\\csgraph\\_reordering.cp38-win_amd64.pyd',
   'EXTENSION'),
  ('scipy.sparse.csgraph._matching',
   'c:\\users\\eunbiline_98\\anaconda3\\envs\\rgb\\lib\\site-packages\\scipy\\sparse\\csgraph\\_matching.cp38-win_amd64.pyd',
   'EXTENSION'),
  ('scipy.sparse.csgraph._flow',
   'c:\\users\\eunbiline_98\\anaconda3\\envs\\rgb\\lib\\site-packages\\scipy\\sparse\\csgraph\\_flow.cp38-win_amd64.pyd',
   'EXTENSION'),
  ('scipy.sparse.csgraph._min_spanning_tree',
   'c:\\users\\eunbiline_98\\anaconda3\\envs\\rgb\\lib\\site-packages\\scipy\\sparse\\csgraph\\_min_spanning_tree.cp38-win_amd64.pyd',
   'EXTENSION'),
  ('scipy.sparse.csgraph._traversal',
   'c:\\users\\eunbiline_98\\anaconda3\\envs\\rgb\\lib\\site-packages\\scipy\\sparse\\csgraph\\_traversal.cp38-win_amd64.pyd',
   'EXTENSION'),
  ('scipy.sparse.csgraph._shortest_path',
   'c:\\users\\eunbiline_98\\anaconda3\\envs\\rgb\\lib\\site-packages\\scipy\\sparse\\csgraph\\_shortest_path.cp38-win_amd64.pyd',
   'EXTENSION'),
  ('scipy.sparse._sparsetools',
   'c:\\users\\eunbiline_98\\anaconda3\\envs\\rgb\\lib\\site-packages\\scipy\\sparse\\_sparsetools.cp38-win_amd64.pyd',
   'EXTENSION'),
  ('scipy.sparse._csparsetools',
   'c:\\users\\eunbiline_98\\anaconda3\\envs\\rgb\\lib\\site-packages\\scipy\\sparse\\_csparsetools.cp38-win_amd64.pyd',
   'EXTENSION'),
  ('numpy.random.mtrand',
   'c:\\users\\eunbiline_98\\anaconda3\\envs\\rgb\\lib\\site-packages\\numpy\\random\\mtrand.cp38-win_amd64.pyd',
   'EXTENSION'),
  ('numpy.random._sfc64',
   'c:\\users\\eunbiline_98\\anaconda3\\envs\\rgb\\lib\\site-packages\\numpy\\random\\_sfc64.cp38-win_amd64.pyd',
   'EXTENSION'),
  ('numpy.random._philox',
   'c:\\users\\eunbiline_98\\anaconda3\\envs\\rgb\\lib\\site-packages\\numpy\\random\\_philox.cp38-win_amd64.pyd',
   'EXTENSION'),
  ('numpy.random._pcg64',
   'c:\\users\\eunbiline_98\\anaconda3\\envs\\rgb\\lib\\site-packages\\numpy\\random\\_pcg64.cp38-win_amd64.pyd',
   'EXTENSION'),
  ('numpy.random._mt19937',
   'c:\\users\\eunbiline_98\\anaconda3\\envs\\rgb\\lib\\site-packages\\numpy\\random\\_mt19937.cp38-win_amd64.pyd',
   'EXTENSION'),
  ('numpy.random.bit_generator',
   'c:\\users\\eunbiline_98\\anaconda3\\envs\\rgb\\lib\\site-packages\\numpy\\random\\bit_generator.cp38-win_amd64.pyd',
   'EXTENSION'),
  ('numpy.random._generator',
   'c:\\users\\eunbiline_98\\anaconda3\\envs\\rgb\\lib\\site-packages\\numpy\\random\\_generator.cp38-win_amd64.pyd',
   'EXTENSION'),
  ('numpy.random._bounded_integers',
   'c:\\users\\eunbiline_98\\anaconda3\\envs\\rgb\\lib\\site-packages\\numpy\\random\\_bounded_integers.cp38-win_amd64.pyd',
   'EXTENSION'),
  ('numpy.random._common',
   'c:\\users\\eunbiline_98\\anaconda3\\envs\\rgb\\lib\\site-packages\\numpy\\random\\_common.cp38-win_amd64.pyd',
   'EXTENSION'),
  ('scipy.special._ellip_harm_2',
   'c:\\users\\eunbiline_98\\anaconda3\\envs\\rgb\\lib\\site-packages\\scipy\\special\\_ellip_harm_2.cp38-win_amd64.pyd',
   'EXTENSION'),
  ('scipy.interpolate.interpnd',
   'c:\\users\\eunbiline_98\\anaconda3\\envs\\rgb\\lib\\site-packages\\scipy\\interpolate\\interpnd.cp38-win_amd64.pyd',
   'EXTENSION'),
  ('scipy.interpolate._ppoly',
   'c:\\users\\eunbiline_98\\anaconda3\\envs\\rgb\\lib\\site-packages\\scipy\\interpolate\\_ppoly.cp38-win_amd64.pyd',
   'EXTENSION'),
  ('scipy.interpolate._bspl',
   'c:\\users\\eunbiline_98\\anaconda3\\envs\\rgb\\lib\\site-packages\\scipy\\interpolate\\_bspl.cp38-win_amd64.pyd',
   'EXTENSION'),
  ('scipy.interpolate.dfitpack',
   'c:\\users\\eunbiline_98\\anaconda3\\envs\\rgb\\lib\\site-packages\\scipy\\interpolate\\dfitpack.cp38-win_amd64.pyd',
   'EXTENSION'),
  ('scipy.interpolate._fitpack',
   'c:\\users\\eunbiline_98\\anaconda3\\envs\\rgb\\lib\\site-packages\\scipy\\interpolate\\_fitpack.cp38-win_amd64.pyd',
   'EXTENSION'),
  ('scipy.spatial.transform.rotation',
   'c:\\users\\eunbiline_98\\anaconda3\\envs\\rgb\\lib\\site-packages\\scipy\\spatial\\transform\\rotation.cp38-win_amd64.pyd',
   'EXTENSION'),
  ('scipy.spatial._hausdorff',
   'c:\\users\\eunbiline_98\\anaconda3\\envs\\rgb\\lib\\site-packages\\scipy\\spatial\\_hausdorff.cp38-win_amd64.pyd',
   'EXTENSION'),
  ('scipy.spatial._distance_wrap',
   'c:\\users\\eunbiline_98\\anaconda3\\envs\\rgb\\lib\\site-packages\\scipy\\spatial\\_distance_wrap.cp38-win_amd64.pyd',
   'EXTENSION'),
  ('scipy.spatial._voronoi',
   'c:\\users\\eunbiline_98\\anaconda3\\envs\\rgb\\lib\\site-packages\\scipy\\spatial\\_voronoi.cp38-win_amd64.pyd',
   'EXTENSION'),
  ('scipy.spatial.qhull',
   'c:\\users\\eunbiline_98\\anaconda3\\envs\\rgb\\lib\\site-packages\\scipy\\spatial\\qhull.cp38-win_amd64.pyd',
   'EXTENSION'),
  ('scipy.spatial.ckdtree',
   'c:\\users\\eunbiline_98\\anaconda3\\envs\\rgb\\lib\\site-packages\\scipy\\spatial\\ckdtree.cp38-win_amd64.pyd',
   'EXTENSION'),
  ('scipy.optimize._lsq.givens_elimination',
   'c:\\users\\eunbiline_98\\anaconda3\\envs\\rgb\\lib\\site-packages\\scipy\\optimize\\_lsq\\givens_elimination.cp38-win_amd64.pyd',
   'EXTENSION'),
  ('scipy.optimize._lsap_module',
   'c:\\users\\eunbiline_98\\anaconda3\\envs\\rgb\\lib\\site-packages\\scipy\\optimize\\_lsap_module.cp38-win_amd64.pyd',
   'EXTENSION'),
  ('scipy.linalg._interpolative',
   'c:\\users\\eunbiline_98\\anaconda3\\envs\\rgb\\lib\\site-packages\\scipy\\linalg\\_interpolative.cp38-win_amd64.pyd',
   'EXTENSION'),
  ('scipy.optimize._bglu_dense',
   'c:\\users\\eunbiline_98\\anaconda3\\envs\\rgb\\lib\\site-packages\\scipy\\optimize\\_bglu_dense.cp38-win_amd64.pyd',
   'EXTENSION'),
  ('scipy.optimize._highs._highs_constants',
   'c:\\users\\eunbiline_98\\anaconda3\\envs\\rgb\\lib\\site-packages\\scipy\\optimize\\_highs\\_highs_constants.cp38-win_amd64.pyd',
   'EXTENSION'),
  ('scipy.optimize._highs._highs_wrapper',
   'c:\\users\\eunbiline_98\\anaconda3\\envs\\rgb\\lib\\site-packages\\scipy\\optimize\\_highs\\_highs_wrapper.cp38-win_amd64.pyd',
   'EXTENSION'),
  ('scipy.optimize.__nnls',
   'c:\\users\\eunbiline_98\\anaconda3\\envs\\rgb\\lib\\site-packages\\scipy\\optimize\\__nnls.cp38-win_amd64.pyd',
   'EXTENSION'),
  ('scipy.optimize._slsqp',
   'c:\\users\\eunbiline_98\\anaconda3\\envs\\rgb\\lib\\site-packages\\scipy\\optimize\\_slsqp.cp38-win_amd64.pyd',
   'EXTENSION'),
  ('scipy.optimize._zeros',
   'c:\\users\\eunbiline_98\\anaconda3\\envs\\rgb\\lib\\site-packages\\scipy\\optimize\\_zeros.cp38-win_amd64.pyd',
   'EXTENSION'),
  ('scipy.optimize._minpack',
   'c:\\users\\eunbiline_98\\anaconda3\\envs\\rgb\\lib\\site-packages\\scipy\\optimize\\_minpack.cp38-win_amd64.pyd',
   'EXTENSION'),
  ('scipy.optimize._trlib._trlib',
   'c:\\users\\eunbiline_98\\anaconda3\\envs\\rgb\\lib\\site-packages\\scipy\\optimize\\_trlib\\_trlib.cp38-win_amd64.pyd',
   'EXTENSION'),
  ('scipy.optimize._cobyla',
   'c:\\users\\eunbiline_98\\anaconda3\\envs\\rgb\\lib\\site-packages\\scipy\\optimize\\_cobyla.cp38-win_amd64.pyd',
   'EXTENSION'),
  ('scipy.optimize.moduleTNC',
   'c:\\users\\eunbiline_98\\anaconda3\\envs\\rgb\\lib\\site-packages\\scipy\\optimize\\moduleTNC.cp38-win_amd64.pyd',
   'EXTENSION'),
  ('scipy.optimize._lbfgsb',
   'c:\\users\\eunbiline_98\\anaconda3\\envs\\rgb\\lib\\site-packages\\scipy\\optimize\\_lbfgsb.cp38-win_amd64.pyd',
   'EXTENSION'),
  ('scipy.optimize.minpack2',
   'c:\\users\\eunbiline_98\\anaconda3\\envs\\rgb\\lib\\site-packages\\scipy\\optimize\\minpack2.cp38-win_amd64.pyd',
   'EXTENSION'),
  ('scipy.optimize._group_columns',
   'c:\\users\\eunbiline_98\\anaconda3\\envs\\rgb\\lib\\site-packages\\scipy\\optimize\\_group_columns.cp38-win_amd64.pyd',
   'EXTENSION'),
  ('scipy.fft._pocketfft.pypocketfft',
   'c:\\users\\eunbiline_98\\anaconda3\\envs\\rgb\\lib\\site-packages\\scipy\\fft\\_pocketfft\\pypocketfft.cp38-win_amd64.pyd',
   'EXTENSION'),
  ('numpy.fft._pocketfft_internal',
   'c:\\users\\eunbiline_98\\anaconda3\\envs\\rgb\\lib\\site-packages\\numpy\\fft\\_pocketfft_internal.cp38-win_amd64.pyd',
   'EXTENSION'),
  ('scipy._lib._uarray._uarray',
   'c:\\users\\eunbiline_98\\anaconda3\\envs\\rgb\\lib\\site-packages\\scipy\\_lib\\_uarray\\_uarray.cp38-win_amd64.pyd',
   'EXTENSION'),
  ('scipy.linalg._solve_toeplitz',
   'c:\\users\\eunbiline_98\\anaconda3\\envs\\rgb\\lib\\site-packages\\scipy\\linalg\\_solve_toeplitz.cp38-win_amd64.pyd',
   'EXTENSION'),
  ('scipy.linalg._flinalg',
   'c:\\users\\eunbiline_98\\anaconda3\\envs\\rgb\\lib\\site-packages\\scipy\\linalg\\_flinalg.cp38-win_amd64.pyd',
   'EXTENSION'),
  ('scipy.sparse.linalg.eigen.arpack._arpack',
   'c:\\users\\eunbiline_98\\anaconda3\\envs\\rgb\\lib\\site-packages\\scipy\\sparse\\linalg\\eigen\\arpack\\_arpack.cp38-win_amd64.pyd',
   'EXTENSION'),
  ('scipy.sparse.linalg.dsolve._superlu',
   'c:\\users\\eunbiline_98\\anaconda3\\envs\\rgb\\lib\\site-packages\\scipy\\sparse\\linalg\\dsolve\\_superlu.cp38-win_amd64.pyd',
   'EXTENSION'),
  ('scipy.sparse.linalg.isolve._iterative',
   'c:\\users\\eunbiline_98\\anaconda3\\envs\\rgb\\lib\\site-packages\\scipy\\sparse\\linalg\\isolve\\_iterative.cp38-win_amd64.pyd',
   'EXTENSION'),
  ('scipy.integrate.lsoda',
   'c:\\users\\eunbiline_98\\anaconda3\\envs\\rgb\\lib\\site-packages\\scipy\\integrate\\lsoda.cp38-win_amd64.pyd',
   'EXTENSION'),
  ('scipy.integrate._dop',
   'c:\\users\\eunbiline_98\\anaconda3\\envs\\rgb\\lib\\site-packages\\scipy\\integrate\\_dop.cp38-win_amd64.pyd',
   'EXTENSION'),
  ('scipy.integrate.vode',
   'c:\\users\\eunbiline_98\\anaconda3\\envs\\rgb\\lib\\site-packages\\scipy\\integrate\\vode.cp38-win_amd64.pyd',
   'EXTENSION'),
  ('scipy.integrate._quadpack',
   'c:\\users\\eunbiline_98\\anaconda3\\envs\\rgb\\lib\\site-packages\\scipy\\integrate\\_quadpack.cp38-win_amd64.pyd',
   'EXTENSION'),
  ('scipy.integrate._odepack',
   'c:\\users\\eunbiline_98\\anaconda3\\envs\\rgb\\lib\\site-packages\\scipy\\integrate\\_odepack.cp38-win_amd64.pyd',
   'EXTENSION'),
  ('scipy.special._comb',
   'c:\\users\\eunbiline_98\\anaconda3\\envs\\rgb\\lib\\site-packages\\scipy\\special\\_comb.cp38-win_amd64.pyd',
   'EXTENSION'),
  ('scipy.special.specfun',
   'c:\\users\\eunbiline_98\\anaconda3\\envs\\rgb\\lib\\site-packages\\scipy\\special\\specfun.cp38-win_amd64.pyd',
   'EXTENSION'),
  ('scipy.special._ufuncs',
   'c:\\users\\eunbiline_98\\anaconda3\\envs\\rgb\\lib\\site-packages\\scipy\\special\\_ufuncs.cp38-win_amd64.pyd',
   'EXTENSION'),
  ('scipy.special._ufuncs_cxx',
   'c:\\users\\eunbiline_98\\anaconda3\\envs\\rgb\\lib\\site-packages\\scipy\\special\\_ufuncs_cxx.cp38-win_amd64.pyd',
   'EXTENSION'),
  ('scipy.linalg.cython_lapack',
   'c:\\users\\eunbiline_98\\anaconda3\\envs\\rgb\\lib\\site-packages\\scipy\\linalg\\cython_lapack.cp38-win_amd64.pyd',
   'EXTENSION'),
  ('scipy.linalg.cython_blas',
   'c:\\users\\eunbiline_98\\anaconda3\\envs\\rgb\\lib\\site-packages\\scipy\\linalg\\cython_blas.cp38-win_amd64.pyd',
   'EXTENSION'),
  ('scipy.linalg._decomp_update',
   'c:\\users\\eunbiline_98\\anaconda3\\envs\\rgb\\lib\\site-packages\\scipy\\linalg\\_decomp_update.cp38-win_amd64.pyd',
   'EXTENSION'),
  ('scipy.linalg._matfuncs_sqrtm_triu',
   'c:\\users\\eunbiline_98\\anaconda3\\envs\\rgb\\lib\\site-packages\\scipy\\linalg\\_matfuncs_sqrtm_triu.cp38-win_amd64.pyd',
   'EXTENSION'),
  ('scipy.stats.mvn',
   'c:\\users\\eunbiline_98\\anaconda3\\envs\\rgb\\lib\\site-packages\\scipy\\stats\\mvn.cp38-win_amd64.pyd',
   'EXTENSION'),
  ('scipy.stats.statlib',
   'c:\\users\\eunbiline_98\\anaconda3\\envs\\rgb\\lib\\site-packages\\scipy\\stats\\statlib.cp38-win_amd64.pyd',
   'EXTENSION'),
  ('scipy.ndimage._nd_image',
   'c:\\users\\eunbiline_98\\anaconda3\\envs\\rgb\\lib\\site-packages\\scipy\\ndimage\\_nd_image.cp38-win_amd64.pyd',
   'EXTENSION'),
  ('scipy.ndimage._ni_label',
   'c:\\users\\eunbiline_98\\anaconda3\\envs\\rgb\\lib\\site-packages\\scipy\\ndimage\\_ni_label.cp38-win_amd64.pyd',
   'EXTENSION'),
  ('_cffi_backend',
   'c:\\users\\eunbiline_98\\anaconda3\\envs\\rgb\\lib\\site-packages\\_cffi_backend.cp38-win_amd64.pyd',
   'EXTENSION'),
  ('scipy.stats._stats',
   'c:\\users\\eunbiline_98\\anaconda3\\envs\\rgb\\lib\\site-packages\\scipy\\stats\\_stats.cp38-win_amd64.pyd',
   'EXTENSION'),
  ('scipy.special.cython_special',
   'c:\\users\\eunbiline_98\\anaconda3\\envs\\rgb\\lib\\site-packages\\scipy\\special\\cython_special.cp38-win_amd64.pyd',
   'EXTENSION'),
  ('scipy._lib._fpumode',
   'c:\\users\\eunbiline_98\\anaconda3\\envs\\rgb\\lib\\site-packages\\scipy\\_lib\\_fpumode.cp38-win_amd64.pyd',
   'EXTENSION'),
  ('scipy._lib.messagestream',
   'c:\\users\\eunbiline_98\\anaconda3\\envs\\rgb\\lib\\site-packages\\scipy\\_lib\\messagestream.cp38-win_amd64.pyd',
   'EXTENSION'),
  ('scipy.signal._spectral',
   'c:\\users\\eunbiline_98\\anaconda3\\envs\\rgb\\lib\\site-packages\\scipy\\signal\\_spectral.cp38-win_amd64.pyd',
   'EXTENSION'),
  ('scipy.signal._sosfilt',
   'c:\\users\\eunbiline_98\\anaconda3\\envs\\rgb\\lib\\site-packages\\scipy\\signal\\_sosfilt.cp38-win_amd64.pyd',
   'EXTENSION'),
  ('scipy.signal.spline',
   'c:\\users\\eunbiline_98\\anaconda3\\envs\\rgb\\lib\\site-packages\\scipy\\signal\\spline.cp38-win_amd64.pyd',
   'EXTENSION'),
  ('scipy.signal._upfirdn_apply',
   'c:\\users\\eunbiline_98\\anaconda3\\envs\\rgb\\lib\\site-packages\\scipy\\signal\\_upfirdn_apply.cp38-win_amd64.pyd',
   'EXTENSION'),
  ('scipy.signal._max_len_seq_inner',
   'c:\\users\\eunbiline_98\\anaconda3\\envs\\rgb\\lib\\site-packages\\scipy\\signal\\_max_len_seq_inner.cp38-win_amd64.pyd',
   'EXTENSION'),
  ('scipy.signal.sigtools',
   'c:\\users\\eunbiline_98\\anaconda3\\envs\\rgb\\lib\\site-packages\\scipy\\signal\\sigtools.cp38-win_amd64.pyd',
   'EXTENSION'),
  ('mkl._py_mkl_service',
   'c:\\users\\eunbiline_98\\anaconda3\\envs\\rgb\\lib\\site-packages\\mkl\\_py_mkl_service.cp38-win_amd64.pyd',
   'EXTENSION'),
  ('mkl._mklinit',
   'c:\\users\\eunbiline_98\\anaconda3\\envs\\rgb\\lib\\site-packages\\mkl\\_mklinit.cp38-win_amd64.pyd',
   'EXTENSION'),
  ('_portaudio',
   'c:\\users\\eunbiline_98\\anaconda3\\envs\\rgb\\lib\\site-packages\\_portaudio.cp38-win_amd64.pyd',
   'EXTENSION'),
  ('Qt5Core.dll',
   'C:\\Users\\Eunbiline_98\\anaconda3\\envs\\RGB\\Library\\bin\\Qt5Core.dll',
   'BINARY'),
  ('Qt5Svg.dll',
   'C:\\Users\\Eunbiline_98\\anaconda3\\envs\\RGB\\Library\\bin\\Qt5Svg.dll',
   'BINARY'),
  ('Qt5Gui.dll',
   'C:\\Users\\Eunbiline_98\\anaconda3\\envs\\RGB\\Library\\bin\\Qt5Gui.dll',
   'BINARY'),
  ('api-ms-win-crt-utility-l1-1-0.dll',
   'c:\\users\\eunbiline_98\\anaconda3\\envs\\rgb\\api-ms-win-crt-utility-l1-1-0.dll',
   'BINARY'),
  ('zlib.dll',
   'C:\\Users\\Eunbiline_98\\anaconda3\\envs\\RGB\\Library\\bin\\zlib.dll',
   'BINARY'),
  ('MSVCP140.dll',
   'c:\\users\\eunbiline_98\\anaconda3\\envs\\rgb\\MSVCP140.dll',
   'BINARY'),
  ('libpng16.dll',
   'C:\\Users\\Eunbiline_98\\anaconda3\\envs\\RGB\\Library\\bin\\libpng16.dll',
   'BINARY'),
  ('Qt5Qml.dll',
   'C:\\Users\\Eunbiline_98\\anaconda3\\envs\\RGB\\Library\\bin\\Qt5Qml.dll',
   'BINARY'),
  ('Qt5Quick.dll',
   'C:\\Users\\Eunbiline_98\\anaconda3\\envs\\RGB\\Library\\bin\\Qt5Quick.dll',
   'BINARY'),
  ('libjpeg.dll',
   'C:\\Users\\Eunbiline_98\\anaconda3\\envs\\RGB\\Library\\bin\\libjpeg.dll',
   'BINARY'),
  ('libcrypto-1_1-x64.dll',
   'C:\\Users\\Eunbiline_98\\anaconda3\\envs\\RGB\\Library\\bin\\libcrypto-1_1-x64.dll',
   'BINARY'),
  ('libssl-1_1-x64.dll',
   'C:\\Users\\Eunbiline_98\\anaconda3\\envs\\RGB\\Library\\bin\\libssl-1_1-x64.dll',
   'BINARY'),
  ('libffi-7.dll',
   'c:\\users\\eunbiline_98\\anaconda3\\envs\\rgb\\DLLs\\libffi-7.dll',
   'BINARY'),
  ('python3.dll',
   'c:\\users\\eunbiline_98\\anaconda3\\envs\\rgb\\python3.dll',
   'BINARY'),
  ('Qt5Widgets.dll',
   'C:\\Users\\Eunbiline_98\\anaconda3\\envs\\RGB\\Library\\bin\\Qt5Widgets.dll',
   'BINARY'),
  ('Qt5Test.dll',
   'C:\\Users\\Eunbiline_98\\anaconda3\\envs\\RGB\\Library\\bin\\Qt5Test.dll',
   'BINARY'),
  ('Qt5OpenGL.dll',
   'C:\\Users\\Eunbiline_98\\anaconda3\\envs\\RGB\\Library\\bin\\Qt5OpenGL.dll',
   'BINARY'),
  ('mkl_rt.1.dll',
   'C:\\Users\\Eunbiline_98\\anaconda3\\envs\\RGB\\Library\\bin\\mkl_rt.1.dll',
   'BINARY'),
  ('libifcoremd.dll',
   'C:\\Users\\Eunbiline_98\\anaconda3\\envs\\RGB\\Library\\bin\\libifcoremd.dll',
   'BINARY'),
  ('libmmd.dll',
   'C:\\Users\\Eunbiline_98\\anaconda3\\envs\\RGB\\Library\\bin\\libmmd.dll',
   'BINARY'),
  ('portaudio.dll',
   'C:\\Users\\Eunbiline_98\\anaconda3\\envs\\RGB\\Library\\bin\\portaudio.dll',
   'BINARY'),
  ('VCRUNTIME140_1.dll',
   'c:\\users\\eunbiline_98\\anaconda3\\envs\\rgb\\VCRUNTIME140_1.dll',
   'BINARY'),
  ('Qt5Network.dll',
   'C:\\Users\\Eunbiline_98\\anaconda3\\envs\\RGB\\Library\\bin\\Qt5Network.dll',
   'BINARY'),
  ('base_library.zip',
   'C:\\Users\\Eunbiline_98\\Documents\\project '
   'LKI\\dynalite-project\\Research RGB Led Strip Arduino\\Program\\audio '
   'reactive led strip\\python\\build\\main\\base_library.zip',
   'DATA'),
  ('PyQt5\\uic\\widget-plugins\\qtcharts.py',
   'c:\\users\\eunbiline_98\\anaconda3\\envs\\rgb\\lib\\site-packages\\PyQt5\\uic\\widget-plugins\\qtcharts.py',
   'DATA'),
  ('PyQt5\\Qt\\translations\\qtbase_uk.qm',
   'C:\\Users\\Eunbiline_98\\anaconda3\\envs\\RGB\\Library\\translations\\qtbase_uk.qm',
   'DATA'),
  ('PyQt5\\Qt\\translations\\qtbase_en.qm',
   'C:\\Users\\Eunbiline_98\\anaconda3\\envs\\RGB\\Library\\translations\\qtbase_en.qm',
   'DATA'),
  ('mkl_def.1.dll',
   'c:\\users\\eunbiline_98\\anaconda3\\envs\\rgb\\Library\\bin\\mkl_def.1.dll',
   'DATA'),
  ('openssl.exe',
   'c:\\users\\eunbiline_98\\anaconda3\\envs\\rgb\\Library\\bin\\openssl.exe',
   'DATA'),
  ('mkl_avx512.1.dll',
   'c:\\users\\eunbiline_98\\anaconda3\\envs\\rgb\\Library\\bin\\mkl_avx512.1.dll',
   'DATA'),
  ('PyQt5\\Qt\\translations\\qtbase_it.qm',
   'C:\\Users\\Eunbiline_98\\anaconda3\\envs\\RGB\\Library\\translations\\qtbase_it.qm',
   'DATA'),
  ('PyQt5\\uic\\widget-plugins\\__pycache__\\qscintilla.cpython-38.pyc',
   'c:\\users\\eunbiline_98\\anaconda3\\envs\\rgb\\lib\\site-packages\\PyQt5\\uic\\widget-plugins\\__pycache__\\qscintilla.cpython-38.pyc',
   'DATA'),
  ('api-ms-win-crt-private-l1-1-0.dll',
   'c:\\users\\eunbiline_98\\anaconda3\\envs\\rgb\\Library\\bin\\api-ms-win-crt-private-l1-1-0.dll',
   'DATA'),
  ('mkl_blacs_msmpi_ilp64.1.dll',
   'c:\\users\\eunbiline_98\\anaconda3\\envs\\rgb\\Library\\bin\\mkl_blacs_msmpi_ilp64.1.dll',
   'DATA'),
  ('PyQt5\\Qt\\translations\\qtbase_da.qm',
   'C:\\Users\\Eunbiline_98\\anaconda3\\envs\\RGB\\Library\\translations\\qtbase_da.qm',
   'DATA'),
  ('PyQt5\\Qt\\translations\\qtbase_cs.qm',
   'C:\\Users\\Eunbiline_98\\anaconda3\\envs\\RGB\\Library\\translations\\qtbase_cs.qm',
   'DATA'),
  ('mkl_vml_mc.1.dll',
   'c:\\users\\eunbiline_98\\anaconda3\\envs\\rgb\\Library\\bin\\mkl_vml_mc.1.dll',
   'DATA'),
  ('mkl_avx2.1.dll',
   'c:\\users\\eunbiline_98\\anaconda3\\envs\\rgb\\Library\\bin\\mkl_avx2.1.dll',
   'DATA'),
  ('PyQt5\\Qt\\translations\\qtbase_ru.qm',
   'C:\\Users\\Eunbiline_98\\anaconda3\\envs\\RGB\\Library\\translations\\qtbase_ru.qm',
   'DATA'),
  ('libcrypto-1_1-x64.pdb',
   'c:\\users\\eunbiline_98\\anaconda3\\envs\\rgb\\Library\\bin\\libcrypto-1_1-x64.pdb',
   'DATA'),
  ('PyQt5\\uic\\widget-plugins\\qtwebenginewidgets.py',
   'c:\\users\\eunbiline_98\\anaconda3\\envs\\rgb\\lib\\site-packages\\PyQt5\\uic\\widget-plugins\\qtwebenginewidgets.py',
   'DATA'),
  ('PyQt5\\Qt\\translations\\qtbase_ca.qm',
   'C:\\Users\\Eunbiline_98\\anaconda3\\envs\\RGB\\Library\\translations\\qtbase_ca.qm',
   'DATA'),
  ('mkl_intel_thread.1.dll',
   'c:\\users\\eunbiline_98\\anaconda3\\envs\\rgb\\Library\\bin\\mkl_intel_thread.1.dll',
   'DATA'),
  ('mkl_vml_mc3.1.dll',
   'c:\\users\\eunbiline_98\\anaconda3\\envs\\rgb\\Library\\bin\\mkl_vml_mc3.1.dll',
   'DATA'),
  ('PyQt5\\Qt\\translations\\qtbase_ja.qm',
   'C:\\Users\\Eunbiline_98\\anaconda3\\envs\\RGB\\Library\\translations\\qtbase_ja.qm',
   'DATA'),
  ('mkl_blacs_mpich2_ilp64.1.dll',
   'c:\\users\\eunbiline_98\\anaconda3\\envs\\rgb\\Library\\bin\\mkl_blacs_mpich2_ilp64.1.dll',
   'DATA'),
  ('mkl_core.1.dll',
   'c:\\users\\eunbiline_98\\anaconda3\\envs\\rgb\\Library\\bin\\mkl_core.1.dll',
   'DATA'),
  ('mkl_cdft_core.1.dll',
   'c:\\users\\eunbiline_98\\anaconda3\\envs\\rgb\\Library\\bin\\mkl_cdft_core.1.dll',
   'DATA'),
  ('libimalloc.dll',
   'c:\\users\\eunbiline_98\\anaconda3\\envs\\rgb\\Library\\bin\\libimalloc.dll',
   'DATA'),
  ('PyQt5\\Qt\\translations\\qtbase_bg.qm',
   'C:\\Users\\Eunbiline_98\\anaconda3\\envs\\RGB\\Library\\translations\\qtbase_bg.qm',
   'DATA'),
  ('mkl_blacs_msmpi_lp64.1.dll',
   'c:\\users\\eunbiline_98\\anaconda3\\envs\\rgb\\Library\\bin\\mkl_blacs_msmpi_lp64.1.dll',
   'DATA'),
  ('mkl_vml_avx2.1.dll',
   'c:\\users\\eunbiline_98\\anaconda3\\envs\\rgb\\Library\\bin\\mkl_vml_avx2.1.dll',
   'DATA'),
  ('mkl_mc.1.dll',
   'c:\\users\\eunbiline_98\\anaconda3\\envs\\rgb\\Library\\bin\\mkl_mc.1.dll',
   'DATA'),
  ('PyQt5\\uic\\widget-plugins\\qscintilla.py',
   'c:\\users\\eunbiline_98\\anaconda3\\envs\\rgb\\lib\\site-packages\\PyQt5\\uic\\widget-plugins\\qscintilla.py',
   'DATA'),
  ('PyQt5\\Qt\\translations\\qtbase_fr.qm',
   'C:\\Users\\Eunbiline_98\\anaconda3\\envs\\RGB\\Library\\translations\\qtbase_fr.qm',
   'DATA'),
  ('PyQt5\\uic\\widget-plugins\\__pycache__\\qtwebkit.cpython-38.pyc',
   'c:\\users\\eunbiline_98\\anaconda3\\envs\\rgb\\lib\\site-packages\\PyQt5\\uic\\widget-plugins\\__pycache__\\qtwebkit.cpython-38.pyc',
   'DATA'),
  ('libssl-1_1-x64.pdb',
   'c:\\users\\eunbiline_98\\anaconda3\\envs\\rgb\\Library\\bin\\libssl-1_1-x64.pdb',
   'DATA'),
  ('mkl_tbb_thread.1.dll',
   'c:\\users\\eunbiline_98\\anaconda3\\envs\\rgb\\Library\\bin\\mkl_tbb_thread.1.dll',
   'DATA'),
  ('mkl_avx.1.dll',
   'c:\\users\\eunbiline_98\\anaconda3\\envs\\rgb\\Library\\bin\\mkl_avx.1.dll',
   'DATA'),
  ('PyQt5\\uic\\widget-plugins\\__pycache__\\qaxcontainer.cpython-38.pyc',
   'c:\\users\\eunbiline_98\\anaconda3\\envs\\rgb\\lib\\site-packages\\PyQt5\\uic\\widget-plugins\\__pycache__\\qaxcontainer.cpython-38.pyc',
   'DATA'),
  ('PyQt5\\uic\\widget-plugins\\qtquickwidgets.py',
   'c:\\users\\eunbiline_98\\anaconda3\\envs\\rgb\\lib\\site-packages\\PyQt5\\uic\\widget-plugins\\qtquickwidgets.py',
   'DATA'),
  ('mkl_mc3.1.dll',
   'c:\\users\\eunbiline_98\\anaconda3\\envs\\rgb\\Library\\bin\\mkl_mc3.1.dll',
   'DATA'),
  ('PyQt5\\Qt\\translations\\qtbase_de.qm',
   'C:\\Users\\Eunbiline_98\\anaconda3\\envs\\RGB\\Library\\translations\\qtbase_de.qm',
   'DATA'),
  ('openssl.pdb',
   'c:\\users\\eunbiline_98\\anaconda3\\envs\\rgb\\Library\\bin\\openssl.pdb',
   'DATA'),
  ('mkl_blacs_lp64.1.dll',
   'c:\\users\\eunbiline_98\\anaconda3\\envs\\rgb\\Library\\bin\\mkl_blacs_lp64.1.dll',
   'DATA'),
  ('PyQt5\\uic\\widget-plugins\\qtwebkit.py',
   'c:\\users\\eunbiline_98\\anaconda3\\envs\\rgb\\lib\\site-packages\\PyQt5\\uic\\widget-plugins\\qtwebkit.py',
   'DATA'),
  ('msvcp140_codecvt_ids.dll',
   'c:\\users\\eunbiline_98\\anaconda3\\envs\\rgb\\Library\\bin\\msvcp140_codecvt_ids.dll',
   'DATA'),
  ('mkl_blacs_mpich2_lp64.1.dll',
   'c:\\users\\eunbiline_98\\anaconda3\\envs\\rgb\\Library\\bin\\mkl_blacs_mpich2_lp64.1.dll',
   'DATA'),
  ('mkl_sequential.1.dll',
   'c:\\users\\eunbiline_98\\anaconda3\\envs\\rgb\\Library\\bin\\mkl_sequential.1.dll',
   'DATA'),
  ('PyQt5\\Qt\\translations\\qtbase_es.qm',
   'C:\\Users\\Eunbiline_98\\anaconda3\\envs\\RGB\\Library\\translations\\qtbase_es.qm',
   'DATA'),
  ('sqlite3.exe',
   'c:\\users\\eunbiline_98\\anaconda3\\envs\\rgb\\Library\\bin\\sqlite3.exe',
   'DATA'),
  ('PyQt5\\Qt\\translations\\qtbase_hu.qm',
   'C:\\Users\\Eunbiline_98\\anaconda3\\envs\\RGB\\Library\\translations\\qtbase_hu.qm',
   'DATA'),
  ('mkl_vml_avx.1.dll',
   'c:\\users\\eunbiline_98\\anaconda3\\envs\\rgb\\Library\\bin\\mkl_vml_avx.1.dll',
   'DATA'),
  ('PyQt5\\Qt\\bin\\qt.conf',
   'C:\\Users\\Eunbiline_98\\anaconda3\\envs\\RGB\\Library\\bin\\qt.conf',
   'DATA'),
  ('PyQt5\\Qt\\translations\\qtbase_ko.qm',
   'C:\\Users\\Eunbiline_98\\anaconda3\\envs\\RGB\\Library\\translations\\qtbase_ko.qm',
   'DATA'),
  ('PyQt5\\uic\\widget-plugins\\qtprintsupport.py',
   'c:\\users\\eunbiline_98\\anaconda3\\envs\\rgb\\lib\\site-packages\\PyQt5\\uic\\widget-plugins\\qtprintsupport.py',
   'DATA'),
  ('api-ms-win-crt-multibyte-l1-1-0.dll',
   'c:\\users\\eunbiline_98\\anaconda3\\envs\\rgb\\Library\\bin\\api-ms-win-crt-multibyte-l1-1-0.dll',
   'DATA'),
  ('mkl_pgi_thread.1.dll',
   'c:\\users\\eunbiline_98\\anaconda3\\envs\\rgb\\Library\\bin\\mkl_pgi_thread.1.dll',
   'DATA'),
  ('mkl_blacs_intelmpi_ilp64.1.dll',
   'c:\\users\\eunbiline_98\\anaconda3\\envs\\rgb\\Library\\bin\\mkl_blacs_intelmpi_ilp64.1.dll',
   'DATA'),
  ('msvcp140_1.dll',
   'c:\\users\\eunbiline_98\\anaconda3\\envs\\rgb\\Library\\bin\\msvcp140_1.dll',
   'DATA'),
  ('PyQt5\\Qt\\translations\\qtbase_ar.qm',
   'C:\\Users\\Eunbiline_98\\anaconda3\\envs\\RGB\\Library\\translations\\qtbase_ar.qm',
   'DATA'),
  ('PyQt5\\Qt\\translations\\qtbase_gd.qm',
   'C:\\Users\\Eunbiline_98\\anaconda3\\envs\\RGB\\Library\\translations\\qtbase_gd.qm',
   'DATA'),
  ('mkl_vml_def.1.dll',
   'c:\\users\\eunbiline_98\\anaconda3\\envs\\rgb\\Library\\bin\\mkl_vml_def.1.dll',
   'DATA'),
  ('mkl_scalapack_ilp64.1.dll',
   'c:\\users\\eunbiline_98\\anaconda3\\envs\\rgb\\Library\\bin\\mkl_scalapack_ilp64.1.dll',
   'DATA'),
  ('mkl_blacs_ilp64.1.dll',
   'c:\\users\\eunbiline_98\\anaconda3\\envs\\rgb\\Library\\bin\\mkl_blacs_ilp64.1.dll',
   'DATA'),
  ('mkl_vml_mc2.1.dll',
   'c:\\users\\eunbiline_98\\anaconda3\\envs\\rgb\\Library\\bin\\mkl_vml_mc2.1.dll',
   'DATA'),
  ('PyQt5\\uic\\widget-plugins\\__pycache__\\qtwebenginewidgets.cpython-38.pyc',
   'c:\\users\\eunbiline_98\\anaconda3\\envs\\rgb\\lib\\site-packages\\PyQt5\\uic\\widget-plugins\\__pycache__\\qtwebenginewidgets.cpython-38.pyc',
   'DATA'),
  ('mkl_vml_avx512.1.dll',
   'c:\\users\\eunbiline_98\\anaconda3\\envs\\rgb\\Library\\bin\\mkl_vml_avx512.1.dll',
   'DATA'),
  ('PyQt5\\Qt\\translations\\qtbase_lv.qm',
   'C:\\Users\\Eunbiline_98\\anaconda3\\envs\\RGB\\Library\\translations\\qtbase_lv.qm',
   'DATA'),
  ('libiomp5md.dll',
   'c:\\users\\eunbiline_98\\anaconda3\\envs\\rgb\\Library\\bin\\libiomp5md.dll',
   'DATA'),
  ('PyQt5\\Qt\\translations\\qtbase_pl.qm',
   'C:\\Users\\Eunbiline_98\\anaconda3\\envs\\RGB\\Library\\translations\\qtbase_pl.qm',
   'DATA'),
  ('PyQt5\\Qt\\translations\\qtbase_sk.qm',
   'C:\\Users\\Eunbiline_98\\anaconda3\\envs\\RGB\\Library\\translations\\qtbase_sk.qm',
   'DATA'),
  ('c_rehash.pl',
   'c:\\users\\eunbiline_98\\anaconda3\\envs\\rgb\\Library\\bin\\c_rehash.pl',
   'DATA'),
  ('libiompstubs5md.dll',
   'c:\\users\\eunbiline_98\\anaconda3\\envs\\rgb\\Library\\bin\\libiompstubs5md.dll',
   'DATA'),
  ('mkl_msg.dll',
   'c:\\users\\eunbiline_98\\anaconda3\\envs\\rgb\\Library\\bin\\mkl_msg.dll',
   'DATA'),
  ('PyQt5\\Qt\\translations\\qtbase_fi.qm',
   'C:\\Users\\Eunbiline_98\\anaconda3\\envs\\RGB\\Library\\translations\\qtbase_fi.qm',
   'DATA'),
  ('PyQt5\\uic\\widget-plugins\\qaxcontainer.py',
   'c:\\users\\eunbiline_98\\anaconda3\\envs\\rgb\\lib\\site-packages\\PyQt5\\uic\\widget-plugins\\qaxcontainer.py',
   'DATA'),
  ('concrt140.dll',
   'c:\\users\\eunbiline_98\\anaconda3\\envs\\rgb\\Library\\bin\\concrt140.dll',
   'DATA'),
  ('sqlite3.dll',
   'c:\\users\\eunbiline_98\\anaconda3\\envs\\rgb\\Library\\bin\\sqlite3.dll',
   'DATA'),
  ('mkl_scalapack_lp64.1.dll',
   'c:\\users\\eunbiline_98\\anaconda3\\envs\\rgb\\Library\\bin\\mkl_scalapack_lp64.1.dll',
   'DATA'),
  ('msvcp140_2.dll',
   'c:\\users\\eunbiline_98\\anaconda3\\envs\\rgb\\Library\\bin\\msvcp140_2.dll',
   'DATA'),
  ('PyQt5\\uic\\widget-plugins\\__pycache__\\qtprintsupport.cpython-38.pyc',
   'c:\\users\\eunbiline_98\\anaconda3\\envs\\rgb\\lib\\site-packages\\PyQt5\\uic\\widget-plugins\\__pycache__\\qtprintsupport.cpython-38.pyc',
   'DATA'),
  ('libiomp5md.pdb',
   'c:\\users\\eunbiline_98\\anaconda3\\envs\\rgb\\Library\\bin\\libiomp5md.pdb',
   'DATA'),
  ('mkl_blacs_intelmpi_lp64.1.dll',
   'c:\\users\\eunbiline_98\\anaconda3\\envs\\rgb\\Library\\bin\\mkl_blacs_intelmpi_lp64.1.dll',
   'DATA'),
  ('vcomp140.dll',
   'c:\\users\\eunbiline_98\\anaconda3\\envs\\rgb\\Library\\bin\\vcomp140.dll',
   'DATA'),
  ('vccorlib140.dll',
   'c:\\users\\eunbiline_98\\anaconda3\\envs\\rgb\\Library\\bin\\vccorlib140.dll',
   'DATA'),
  ('PyQt5\\uic\\widget-plugins\\__pycache__\\qtcharts.cpython-38.pyc',
   'c:\\users\\eunbiline_98\\anaconda3\\envs\\rgb\\lib\\site-packages\\PyQt5\\uic\\widget-plugins\\__pycache__\\qtcharts.cpython-38.pyc',
   'DATA'),
  ('PyQt5\\Qt\\translations\\qtbase_he.qm',
   'C:\\Users\\Eunbiline_98\\anaconda3\\envs\\RGB\\Library\\translations\\qtbase_he.qm',
   'DATA'),
  ('mkl_vml_cmpt.1.dll',
   'c:\\users\\eunbiline_98\\anaconda3\\envs\\rgb\\Library\\bin\\mkl_vml_cmpt.1.dll',
   'DATA'),
  ('PyQt5\\uic\\widget-plugins\\__pycache__\\qtquickwidgets.cpython-38.pyc',
   'c:\\users\\eunbiline_98\\anaconda3\\envs\\rgb\\lib\\site-packages\\PyQt5\\uic\\widget-plugins\\__pycache__\\qtquickwidgets.cpython-38.pyc',
   'DATA')],)
