('C:\\Users\\Eunbiline_98\\Documents\\project LKI\\dynalite-project\\Research '
 'RGB Led Strip Arduino\\Program\\audio reactive led '
 'strip\\python\\build\\main\\PKG-00.pkg',
 {'BINARY': 1,
  'DATA': 1,
  'EXECUTABLE': 1,
  'EXTENSION': 1,
  'PYMODULE': 1,
  'PYSOURCE': 1,
  'PYZ': 0},
 [('PYZ-00.pyz',
   'C:\\Users\\Eunbiline_98\\Documents\\project '
   'LKI\\dynalite-project\\Research RGB Led Strip Arduino\\Program\\audio '
   'reactive led strip\\python\\build\\main\\PYZ-00.pyz',
   'PYZ'),
  ('struct',
   'c:\\users\\eunbiline_98\\anaconda3\\envs\\rgb\\lib\\struct.pyo',
   'PYMODULE'),
  ('pyimod01_os_path',
   'c:\\users\\eunbiline_98\\anaconda3\\envs\\rgb\\lib\\site-packages\\PyInstaller\\loader\\pyimod01_os_path.pyc',
   'PYMODULE'),
  ('pyimod02_archive',
   'c:\\users\\eunbiline_98\\anaconda3\\envs\\rgb\\lib\\site-packages\\PyInstaller\\loader\\pyimod02_archive.pyc',
   'PYMODULE'),
  ('pyimod03_importers',
   'c:\\users\\eunbiline_98\\anaconda3\\envs\\rgb\\lib\\site-packages\\PyInstaller\\loader\\pyimod03_importers.pyc',
   'PYMODULE'),
  ('pyiboot01_bootstrap',
   'c:\\users\\eunbiline_98\\anaconda3\\envs\\rgb\\lib\\site-packages\\PyInstaller\\loader\\pyiboot01_bootstrap.py',
   'PYSOURCE'),
  ('pyi_rth_multiprocessing',
   'C:\\Users\\Eunbiline_98\\anaconda3\\envs\\RGB\\Lib\\site-packages\\PyInstaller\\hooks\\rthooks\\pyi_rth_multiprocessing.py',
   'PYSOURCE'),
  ('pyi_rth_pyqt5',
   'C:\\Users\\Eunbiline_98\\anaconda3\\envs\\RGB\\Lib\\site-packages\\PyInstaller\\hooks\\rthooks\\pyi_rth_pyqt5.py',
   'PYSOURCE'),
  ('pyi_rth_pkgres',
   'C:\\Users\\Eunbiline_98\\anaconda3\\envs\\RGB\\Lib\\site-packages\\PyInstaller\\hooks\\rthooks\\pyi_rth_pkgres.py',
   'PYSOURCE'),
  ('config',
   'C:\\Users\\Eunbiline_98\\Documents\\project '
   'LKI\\dynalite-project\\Research RGB Led Strip Arduino\\Program\\audio '
   'reactive led strip\\python\\config.py',
   'PYSOURCE'),
  ('dsp',
   'C:\\Users\\Eunbiline_98\\Documents\\project '
   'LKI\\dynalite-project\\Research RGB Led Strip Arduino\\Program\\audio '
   'reactive led strip\\python\\dsp.py',
   'PYSOURCE'),
  ('microphone',
   'C:\\Users\\Eunbiline_98\\Documents\\project '
   'LKI\\dynalite-project\\Research RGB Led Strip Arduino\\Program\\audio '
   'reactive led strip\\python\\microphone.py',
   'PYSOURCE'),
  ('visualization',
   'C:\\Users\\Eunbiline_98\\Documents\\project '
   'LKI\\dynalite-project\\Research RGB Led Strip Arduino\\Program\\audio '
   'reactive led strip\\python\\visualization.py',
   'PYSOURCE'),
  ('melbank',
   'C:\\Users\\Eunbiline_98\\Documents\\project '
   'LKI\\dynalite-project\\Research RGB Led Strip Arduino\\Program\\audio '
   'reactive led strip\\python\\melbank.py',
   'PYSOURCE'),
  ('gui',
   'C:\\Users\\Eunbiline_98\\Documents\\project '
   'LKI\\dynalite-project\\Research RGB Led Strip Arduino\\Program\\audio '
   'reactive led strip\\python\\gui.py',
   'PYSOURCE'),
  ('main.exe.manifest',
   'C:\\Users\\Eunbiline_98\\Documents\\project '
   'LKI\\dynalite-project\\Research RGB Led Strip Arduino\\Program\\audio '
   'reactive led strip\\python\\build\\main\\main.exe.manifest',
   'BINARY')],
 True,
 False,
 False,
 [])
